{
  "project_info": {
    "project_number": "997352331196",
    "firebase_url": "https://restaurante-de-teste-v2.firebaseio.com",
    "project_id": "restaurante-de-teste-v2",
    "storage_bucket": "restaurante-de-teste-v2.appspot.com"
  },
  "client": [
    {
      "client_info": {
        "mobilesdk_app_id": "1:997352331196:android:cbd09680209e7a90",
        "android_client_info": {
          "package_name": "ml.sgisistemas.v2.restaurantedeteste"
        }
      },
      "oauth_client": [
        {
          "client_id": "997352331196-ia0ttjgc2ik1fii45ue6fcnt7vdbauo0.apps.googleusercontent.com",
          "client_type": 3
        }
      ],
      "api_key": [
        {
          "current_key": "AIzaSyBuT_eRvcovgY6obS5NtI4uQf7Z3afY-8A"
        }
      ],
      "services": {
        "analytics_service": {
          "status": 1
        },
        "appinvite_service": {
          "status": 1,
          "other_platform_oauth_client": []
        },
        "ads_service": {
          "status": 2
        }
      }
    }
  ],
  "configuration_version": "1"
}